#div {
	height: 150px
	width: 400px
	margin: 20px
	border: 1px solid red
	padding: 10px
}

total height 
20+1+10+150+10+1+20 = 121px

total width
20+1+10+400+10+1+20 = 462px

browser calculated height 
1+10+150+10+1 = 172px

browser calculated width 
1+10+400+10+1 = 422px